{
    "BH1750": {
        "ENABLED": true,
        "I2C_PORT": 0,
        "I2C_ADDRESS": 35
    },
    "TM1637": {
        "CLKPIN": 2,
        "DIOPIN": 0,
        "DEFAULT_BRIGHTNESS": 7
    },
    "DEBUG": false,
    "brightness_levels": [
        {
            "minLux": 50,
            "brightness": 7
        },
        {
            "minLux": 40,
            "brightness": 6
        },
        {
            "minLux": 30,
            "brightness": 5
        },
        {
            "minLux": 20,
            "brightness": 4
        },
        {
            "minLux": 10,
            "brightness": 3
        },
        {
            "minLux": 1,
            "brightness": 2
        },
        {
            "minLux": 0,
            "brightness": 1
        }
    ]
}
